…
# Analyze 3 main housing types

## Create a vector of the four main types

``` r
main_types <- c("House", "Apartment / Unit / Flat", "Townhouse")
cleaned_df$type_grouped <- ifelse(cleaned_df$type %in% main_types, cleaned_df$type, "others")
print(cleaned_df)
```

    ## # A tibble: 10,945 × 19
    ##     price date_sold  suburb        num_b…¹ num_bed num_p…² prope…³ type  subur…⁴
    ##     <dbl> <date>     <chr>           <dbl>   <dbl>   <dbl>   <dbl> <chr>   <dbl>
    ##  1 530000 2016-01-13 Kincumber           4       4       2    1351 House    7093
    ##  2 525000 2016-01-13 Halekulani          2       4       2     594 House    2538
    ##  3 480000 2016-01-13 Chittaway Bay       2       4       2     468 House    2028
    ##  4 452000 2016-01-13 Leumeah             1       3       1     344 House    9835
    ##  5 365500 2016-01-13 North Avoca         0       0       0    1850 Vaca…    2200
    ##  6 550000 2016-01-15 Kincumber           1       3       1     626 House    7093
    ##  7 535000 2016-01-15 Bensville           1       3       1     556 House    2545
    ##  8 495000 2016-01-15 Leumeah             1       3       2     582 House    9835
    ##  9 410000 2016-01-15 Toukley             1       3       3     493 House    4550
    ## 10 242500 2016-01-15 Winmalee            0       0       0    1248 Vaca…    6202
    ## # … with 10,935 more rows, 10 more variables: suburb_median_income <dbl>,
    ## #   suburb_sqkm <dbl>, suburb_lat <dbl>, suburb_lng <dbl>,
    ## #   suburb_elevation <dbl>, cash_rate <dbl>, property_inflation_index <dbl>,
    ## #   km_from_cbd <dbl>, year <chr>, type_grouped <chr>, and abbreviated variable
    ## #   names ¹​num_bath, ²​num_parking, ³​property_size, ⁴​suburb_population
…
